Working with Spatial Data
…
Now that we have cleaned up our separate data sets, we can combine them into one large data set to work from. We do a little more tidying along the way, just to remove unwanted missing values present as a result of joining data frames and to reorder certain data columns.

# This code combines the data frames we cleaned up earlier into one large dataframe
finalData <- countyVariables %>% left_join(cafoVariables, by = "county_name")
finalData

## # A tibble: 101 x 5
##    county_name mentally_unheal air_quality_sco food_environmen
##    <chr>                  <dbl>            <dbl>            <dbl>
##  1 <NA>                    3.92             9.05              6.4
##  2 Alamance                4.28             9.3               7.1
##  3 Alexander               4.20             9.6               8  
##  4 Alleghany               4.26             8.3               8.2
##  5 Anson                   4.31             9.5               6.3
##  6 Ashe                    4.12             8.2               8  
##  7 Avery                   4.15             8.3               8.3
##  8 Beaufort                4.13             8.6               7.3
##  9 Bertie                  4.23             8.4               6.3
## 10 Bladen                  4.59             9.1               6.6
## #  with 91 more rows, and 1 more variable: allowable_count <dbl>
…
# Joins the spatial data frames together
ncShpUpdate <- ncShp %>% select(name = co_name, geometry) %>%
  mutate(name = name %>% str_to_title())

# join to finalData
finalDataGeo <- finalData %>% rename(name = county_name) %>% left_join(ncShpUpdate, by = "name") %>% st_sf()
finalDataGeo

## Simple feature collection with 100 features and 5 fields (with 1 geometry empty)
## geometry type:  POLYGON
## dimension:      XY
## bbox:           xmin: -9386640 ymin: 4006583 xmax: -8400167 ymax: 4381891
## epsg (SRID):    3857
## proj4string:    +proj=merc +a=6378137 +b=6378137 +lat_ts=0.0 +lon_0=0.0 +x_0=0.0 +y_0=0 +k=1.0 +units=m +nadgrids=@null +wktext +no_defs
## # A tibble: 100 x 6
##    name  allowable_count mentally_unheal air_quality_sco food_environmen
##    <chr>           <dbl>            <dbl>            <dbl>            <dbl>
##  1 Alam               0             4.28              9.3              7.1
##  2 Alex               0             4.20              9.6              8  
##  3 Alle               0             4.26              8.3              8.2
##  4 Anson            8336             4.31              9.5              6.3
##  5 Ashe                0             4.12              8.2              8  
##  6 Avery               0             4.15              8.3              8.3
##  7 Beau            2245             4.13              8.6              7.3
##  8 Bert            6544             4.23              8.4              6.3
##  9 Blad           63180             4.59              9.1              6.6
## 10 Brun               0             3.93              8.7              7.6
## #  with 90 more rows, and 1 more variable: geometry <POLYGON [m]>
…
